<?xml version="1.0" encoding="UTF-8"?>
<svg width="51px" height="50px" viewBox="0 0 51 50" version="1.1" xmlns="http://www.w3.org/2000/svg" xmlns:xlink="http://www.w3.org/1999/xlink">
    <!-- Generator: sketchtool 50.2 (55047) - http://www.bohemiancoding.com/sketch -->
    <title>BED8F98F-4FF1-4A60-A72E-3B2B4CBB9183</title>
    <desc>Created with sketchtool.</desc>
    <defs></defs>
    <g id="app_web" stroke="none" stroke-width="1" fill="none" fill-rule="evenodd">
        <g id="my_geospots_inner_info_share_dialog" transform="translate(-593.000000, -412.000000)">
            <g id="Group-10" transform="translate(308.000000, 233.000000)">
                <g id="Group-7" transform="translate(25.000000, 179.000000)">
                    <g id="Google-+" transform="translate(260.000000, 0.000000)">
                        <path d="M0,25 C0,11.1928806 11.2458063,0 25.1182128,0 C38.9906194,0 50.2364257,11.1928806 50.2364257,25 C50.2364257,38.8071194 38.9906194,50 25.1182128,50 C11.2458063,50 0,38.8071194 0,25 Z" id="back" fill="#DC4E41"></path>
                        <path d="M20.5216095,24.2857143 L20.5216095,27 L25.0477645,27 C24.8653502,28.164881 23.6796572,30.4154762 20.5216095,30.4154762 C17.7967958,30.4154762 15.5736215,28.1761905 15.5736215,25.4166667 C15.5736215,22.6571429 17.7967958,20.4178571 20.5216095,20.4178571 C22.0721311,20.4178571 23.1096125,21.0738095 23.702459,21.6392857 L25.8686289,19.5696429 C24.4777198,18.2803571 22.6763785,17.5 20.5216095,17.5 C16.1094635,17.5 12.5409836,21.039881 12.5409836,25.4166667 C12.5409836,29.7934524 16.1094635,33.3333333 20.5216095,33.3333333 C25.1275708,33.3333333 28.1830104,30.1214286 28.1830104,25.597619 C28.1830104,25.077381 28.126006,24.6815476 28.0576006,24.2857143 L20.5216095,24.2857143 L20.5216095,24.2857143 Z" id="Shape" fill="#FFFFFF"></path>
                        <polyline id="Shape-Copy" fill="#FFFFFF" points="37.6229508 24.2857143 35.342772 24.2857143 35.342772 22.0238095 33.0625931 22.0238095 33.0625931 24.2857143 30.7824143 24.2857143 30.7824143 26.547619 33.0625931 26.547619 33.0625931 28.8095238 35.342772 28.8095238 35.342772 26.547619 37.6229508 26.547619"></polyline>
                    </g>
                </g>
            </g>
        </g>
    </g>
</svg>