<svg xmlns="http://www.w3.org/2000/svg" width="13" height="13" viewBox="0 0 13 13">
    <path fill="#000" fill-rule="evenodd" d="M6.944 13H.718A.717.717 0 0 1 0 12.282V.717C0 .321.321 0 .718 0h11.565c.396 0 .717.321.717.717v11.565a.718.718 0 0 1-.717.718H8.97V7.966h1.69l.253-1.962H8.97V4.75c0-.568.158-.955.972-.955h1.039V2.04c-.18-.024-.796-.078-1.514-.078-1.498 0-2.523.915-2.523 2.594v1.447H5.25v1.962h1.694V13z" opacity=".5"/>
</svg>
