<?xml version="1.0" encoding="UTF-8"?>
<svg width="44px" height="44px" viewBox="0 0 44 44" version="1.1" xmlns="http://www.w3.org/2000/svg" xmlns:xlink="http://www.w3.org/1999/xlink">
    <!-- Generator: sketchtool 50.2 (55047) - http://www.bohemiancoding.com/sketch -->
    <title>2D78D891-0BB7-49C3-BD8D-F58A355D0F7F</title>
    <desc>Created with sketchtool.</desc>
    <defs>
        <path d="M7.14035088,0.771929825 L36.8596491,0.771929825 C40.376831,0.771929825 43.2280702,3.62316905 43.2280702,7.14035088 L43.2280702,36.8596491 C43.2280702,40.376831 40.376831,43.2280702 36.8596491,43.2280702 L7.14035088,43.2280702 C3.62316905,43.2280702 0.771929825,40.376831 0.771929825,36.8596491 L0.771929825,7.14035088 C0.771929825,3.62316905 3.62316905,0.771929825 7.14035088,0.771929825 Z" id="path-1"></path>
    </defs>
    <g id="app_web" stroke="none" stroke-width="1" fill="none" fill-rule="evenodd">
        <g id="my_geospots" transform="translate(-1015.000000, -359.000000)">
            <g id="Group-8-Copy-3" transform="translate(912.000000, 277.000000)">
                <g id="Group-6">
                    <g id="Mask">
                        <g id="image" transform="translate(103.000000, 82.000000)">
                            <mask id="mask-2" fill="white">
                                <use xlink:href="#path-1"></use>
                            </mask>
                            <use id="Combined-Shape" fill="#0C242A" fill-rule="nonzero" xlink:href="#path-1"></use>
                            <path d="M14.5701754,15.6315789 C15.1563724,15.6315789 15.6315789,15.1563724 15.6315789,14.5701754 C15.6315789,13.9839785 15.1563724,13.5087719 14.5701754,13.5087719 C13.9839785,13.5087719 13.5087719,13.9839785 13.5087719,14.5701754 C13.5087719,15.1563724 13.9839785,15.6315789 14.5701754,15.6315789 Z" id="Combined-Shape" fill="#FFFFFF" mask="url(#mask-2)"></path>
                            <path d="M14.5701754,19.877193 C11.6391906,19.877193 9.26315789,17.5011603 9.26315789,14.5701754 C9.26315789,11.6391906 11.6391906,9.26315789 14.5701754,9.26315789 C17.5011603,9.26315789 19.877193,11.6391906 19.877193,14.5701754 C19.877193,17.5011603 17.5011603,19.877193 14.5701754,19.877193 Z" id="Oval" fill="#EEEDEF" mask="url(#mask-2)"></path>
                            <path d="M43.447175,32.2135331 C44.3682947,33.1790247 45.8617248,33.1790247 46.7828445,32.2135331 C47.7039641,31.2480414 47.7039641,29.68267 46.7828445,28.7171783 L34.9894721,16.3556977 C34.0683525,15.390206 32.5749224,15.390206 31.6538027,16.3556977 L5.70838362,43.5509551 C4.78726394,44.5164468 4.78726394,46.0818181 5.70838362,47.0473098 C6.62950329,48.0128015 8.12293336,48.0128015 9.04405303,47.0473098 L33.3216374,21.6002298 L43.447175,32.2135331 Z" id="Shape" fill="#EEEDEF" mask="url(#mask-2)"></path>
                        </g>
                    </g>
                </g>
            </g>
        </g>
    </g>
</svg>