<?xml version="1.0" encoding="UTF-8"?>
<svg width="12px" height="11px" viewBox="0 0 12 11" version="1.1" xmlns="http://www.w3.org/2000/svg" xmlns:xlink="http://www.w3.org/1999/xlink">
    <!-- Generator: sketchtool 50.2 (55047) - http://www.bohemiancoding.com/sketch -->
    <title>9DBC5F32-C53E-402E-9CB3-E873C9B93AAF</title>
    <desc>Created with sketchtool.</desc>
    <defs></defs>
    <g id="app_web" stroke="none" stroke-width="1" fill="none" fill-rule="evenodd">
        <g id="my_geospots" transform="translate(-129.000000, -589.000000)" fill="#606D70" fill-rule="nonzero">
            <g id="Group-8" transform="translate(94.000000, 277.000000)">
                <g id="Group-6" transform="translate(13.000000, 0.000000)">
                    <g id="Group-9" transform="translate(15.000000, 303.000000)">
                        <path d="M9.81996544,14.0083992 L12.4419214,14.6092641 C12.6195305,14.6499662 12.7582084,14.7770876 12.8026107,14.939896 L13.4580997,17.3433556 L16.7324205,11.0069384 L9.81996544,14.0083992 Z M11.9129104,15.4248227 L8.23570136,14.582129 C7.78413049,14.478644 7.72305856,13.9132746 8.14372015,13.7306189 L17.5624012,9.64092845 C17.9833544,9.45814614 18.4220121,9.86024899 18.2226132,10.2461227 L13.7611327,18.8799137 C13.5618719,19.2655202 12.9451053,19.2095376 12.8322126,18.7955976 L11.9129104,15.4248227 Z" id="Shape"></path>
                    </g>
                </g>
            </g>
        </g>
    </g>
</svg>