<?xml version="1.0" encoding="UTF-8"?>
<svg width="10px" height="12px" viewBox="0 0 10 12" version="1.1" xmlns="http://www.w3.org/2000/svg" xmlns:xlink="http://www.w3.org/1999/xlink">
    <!-- Generator: sketchtool 50.2 (55047) - http://www.bohemiancoding.com/sketch -->
    <title>B7FBF2EA-5AAB-418E-8CAD-6D0A043D9997</title>
    <desc>Created with sketchtool.</desc>
    <defs></defs>
    <g id="app_web" stroke="none" stroke-width="1" fill="none" fill-rule="evenodd">
        <g id="profile_basic_avatar_changed+changing_data" transform="translate(-702.000000, -285.000000)" fill="#FFFFFF" fill-rule="nonzero">
            <g id="Group-5" transform="translate(696.000000, 280.000000)">
                <g id="trash" transform="translate(6.000000, 5.000000)">
                    <path d="M7.5,2.18181818 L9.5,2.18181818 C9.77614237,2.18181818 10,2.4260265 10,2.72727273 C10,3.02851895 9.77614237,3.27272727 9.5,3.27272727 L9,3.27272727 L9,10.3636364 C9,11.267375 8.32842712,12 7.5,12 L2.5,12 C1.67157288,12 1,11.267375 1,10.3636364 L1,3.27272727 L0.5,3.27272727 C0.223857625,3.27272727 0,3.02851895 0,2.72727273 C0,2.4260265 0.223857625,2.18181818 0.5,2.18181818 L2.5,2.18181818 L2.5,1.63636364 C2.5,0.732624955 3.17157288,0 4,0 L6,0 C6.82842712,0 7.5,0.732624955 7.5,1.63636364 L7.5,2.18181818 Z M6.5,2.18181818 L6.5,1.63636364 C6.5,1.33511741 6.27614237,1.09090909 6,1.09090909 L4,1.09090909 C3.72385763,1.09090909 3.5,1.33511741 3.5,1.63636364 L3.5,2.18181818 L6.5,2.18181818 Z M8,3.27272727 L2,3.27272727 L2,10.3636364 C2,10.6648826 2.22385763,10.9090909 2.5,10.9090909 L7.5,10.9090909 C7.77614237,10.9090909 8,10.6648826 8,10.3636364 L8,3.27272727 Z" id="Combined-Shape"></path>
                </g>
            </g>
        </g>
    </g>
</svg>